Simple SIR data simulation
…
Warning: 1 chain(s) finished unexpectedly!

The remaining chains had a mean execution time of 30.4 seconds.

Warning: The returned fit object will only read in results of successful
chains. Please use read_cmdstan_csv() to read the results of the failed chains
separately.Use the $output(chain_id) method for more output of the failed
chains.

print(fit$summary(variables = c('pred_cases')))

# A tibble: 100 x 10
   variable        mean median    sd   mad    q5   q95  rhat ess_bulk ess_tail
   <chr>          <dbl>  <dbl> <dbl> <dbl> <dbl> <dbl> <dbl>    <dbl>    <dbl>
 1 pred_cases[1]   1.20      1  1.13  1.48     0     3  1.00    2909.    2859.
 2 pred_cases[2]   1.38      1  1.24  1.48     0     4  1.00    2902.    2821.
 3 pred_cases[3]   1.63      1  1.37  1.48     0     4  1.00    2904.    2834.
 4 pred_cases[4]   1.92      2  1.49  1.48     0     5  1.00    2501.    2775.
 5 pred_cases[5]   2.30      2  1.63  1.48     0     5  1.00    2910.    2814.
 6 pred_cases[6]   2.67      2  1.77  1.48     0     6  1.00    3104.    3025.
 7 pred_cases[7]   3.15      3  1.97  1.48     0     7  1.00    2959.    2507.
 8 pred_cases[8]   3.75      3  2.22  1.48     1     8  1.00    2983.    2753.
 9 pred_cases[9]   4.36      4  2.42  2.97     1     9  1.00    3055.    2929.
10 pred_cases[10]  5.13      5  2.66  2.97     1    10  1.00    3049.    2995.
#  with 90 more rows
…
